<?xml version="1.0" encoding="UTF-8"?>
<svg width="700pt" height="700pt" version="1.1" viewBox="0 0 700 700" xmlns="http://www.w3.org/2000/svg">
 <path d="m215.07 537.43c-3.3125-3.2852-5.1758-7.7578-5.1758-12.426s1.8633-9.1406 5.1758-12.426l232.75-232.57-232.75-232.57c-3.293-3.2969-5.1445-7.7656-5.1445-12.426s1.8516-9.1289 5.1445-12.426c3.2969-3.293 7.7656-5.1445 12.426-5.1445s9.1289 1.8516 12.426 5.1445l245 245c3.3125 3.2852 5.1758 7.7578 5.1758 12.426s-1.8633 9.1406-5.1758 12.426l-245 245c-3.2852 3.3125-7.7578 5.1758-12.426 5.1758s-9.1406-1.8633-12.426-5.1758z"/>
</svg>
